990s Endowment Funds
…
investments17_summary

# A tibble: 129 × 7
         ein group_n    mean  median     max     min    sd
       <int>   <int>   <dbl>   <int>   <int>   <int> <dbl>
 1  10420070       1      NA      NA      NA      NA    NA
 2  20569320       1      NA      NA      NA      NA    NA
 3  30498652       1      NA      NA      NA      NA    NA
 4  42312734       1 1506547 1506547 1506547 1506547    NA
 5  42773619       1      NA      NA      NA      NA    NA
 6  46193015       1      NA      NA      NA      NA    NA
 7  50377245       1      NA      NA      NA      NA    NA
 8  61478674       1      NA      NA      NA      NA    NA
 9  61537525       1      NA      NA      NA      NA    NA
10 131882106       1 1337748 1337748 1337748 1337748    NA
# ℹ 119 more rows
…
